ERROR:root:Une erreur est survenue dans Insertion
ERROR:root:Une erreur est survenue dans Insertion
ERROR:root:Une erreur est survenue dans Insertion
ERROR:root:Une erreur est survenue dans Insertion
ERROR:root:Une erreur est survenue dans Insertion
ERROR:root:Une erreur est survenue dans Insertion
ERROR:root:Une erreur est survenue dans Insertion
